Scalar Encoder/Decoder (Linear Interpolation Spline)
…
# create training data
d_train <- mk_df(x, ss_1)
# create testing data
# use the same knot vectors, different sampling in vsa_add()
d_test <- mk_df(x, ss_1)

# take a quick look at the data
d_train

# A tibble: 101 × 10,001
   x_num   e_1   e_2   e_3   e_4   e_5   e_6   e_7   e_8   e_9  e_10  e_11  e_12
   <dbl> <int> <int> <int> <int> <int> <int> <int> <int> <int> <int> <int> <int>
 1  1       -1     1    -1     1     1     1    -1     1    -1    -1    -1     1
 2  1.01    -1     1    -1     1     1     1    -1     1    -1    -1    -1     1
 3  1.02    -1     1    -1     1     1     1    -1     1    -1    -1    -1     1
 4  1.03    -1     1    -1     1     1     1    -1     1    -1    -1    -1     1
 5  1.04    -1     1    -1    -1     1     1    -1     1    -1    -1    -1     1
 6  1.05    -1     1    -1     1     1     1    -1     1    -1    -1    -1     1
 7  1.06    -1     1    -1     1     1     1    -1     1    -1    -1     1     1
 8  1.07    -1     1    -1     1     1     1    -1     1    -1    -1    -1     1
 9  1.08    -1     1    -1     1     1     1    -1     1    -1    -1    -1     1
10  1.09    -1     1    -1     1     1     1    -1     1    -1    -1    -1     1
# … with 91 more rows, and 9,988 more variables: e_13 <int>, e_14 <int>,
#   e_15 <int>, e_16 <int>, e_17 <int>, e_18 <int>, e_19 <int>, e_20 <int>,
#   e_21 <int>, e_22 <int>, e_23 <int>, e_24 <int>, e_25 <int>, e_26 <int>,
#   e_27 <int>, e_28 <int>, e_29 <int>, e_30 <int>, e_31 <int>, e_32 <int>,
#   e_33 <int>, e_34 <int>, e_35 <int>, e_36 <int>, e_37 <int>, e_38 <int>,
#   e_39 <int>, e_40 <int>, e_41 <int>, e_42 <int>, e_43 <int>, e_44 <int>,
#   e_45 <int>, e_46 <int>, e_47 <int>, e_48 <int>, e_49 <int>, e_50 <int>, …
…
