VSA Implementation of PID Task Analysis
…
Create the training data from the subset of observations from the
simulation data. This only contains the outcome \(u\) and the VSA encoding
of the predictor \(e\).

# create training data
# contains: u, encode(e)
d_train <- dplyr::bind_cols(
  dplyr::select(d_subset, u), 
  mk_df(dplyr::pull(d_subset, e), ss_e)
)

# take a quick look at the data
d_train

# A tibble: 1,000 × 10,001
       u vsa_1 vsa_2 vsa_3 vsa_4 vsa_5 vsa_6 vsa_7 vsa_8 vsa_9 vsa_10 vsa_11
   <dbl> <int> <int> <int> <int> <int> <int> <int> <int> <int>  <int>  <int>
 1 0.52     -1    -1    -1    -1    -1    -1    -1    -1    -1     -1      1
 2 0.541    -1    -1    -1    -1    -1    -1    -1    -1    -1     -1      1
 3 0.511    -1    -1    -1    -1    -1    -1    -1    -1    -1     -1      1
 4 0.519    -1    -1    -1    -1    -1    -1    -1    -1    -1     -1      1
 5 0.484    -1    -1    -1    -1    -1    -1    -1    -1    -1     -1      1
 6 0.5      -1    -1    -1    -1    -1    -1     1    -1    -1     -1      1
 7 0.163    -1    -1    -1    -1    -1    -1    -1    -1    -1     -1      1
 8 0.53     -1    -1    -1    -1    -1    -1    -1    -1    -1     -1      1
 9 0.507    -1    -1    -1    -1    -1    -1    -1    -1    -1     -1      1
10 0.517    -1    -1    -1    -1    -1    -1    -1    -1    -1     -1      1
# … with 990 more rows, and 9,989 more variables: vsa_12 <int>, vsa_13 <int>,
#   vsa_14 <int>, vsa_15 <int>, vsa_16 <int>, vsa_17 <int>, vsa_18 <int>,
#   vsa_19 <int>, vsa_20 <int>, vsa_21 <int>, vsa_22 <int>, vsa_23 <int>,
#   vsa_24 <int>, vsa_25 <int>, vsa_26 <int>, vsa_27 <int>, vsa_28 <int>,
#   vsa_29 <int>, vsa_30 <int>, vsa_31 <int>, vsa_32 <int>, vsa_33 <int>,
#   vsa_34 <int>, vsa_35 <int>, vsa_36 <int>, vsa_37 <int>, vsa_38 <int>,
#   vsa_39 <int>, vsa_40 <int>, vsa_41 <int>, vsa_42 <int>, vsa_43 <int>, …
Create the test data corresponding to a regular grid of \(e\) values. This
only contains the predictor \(e\) and the VSA encoding of \(e\).

# create testing data
# contains: e, encode(e)
e_test <- seq(from = -6, to = 6, by = 0.05) # grid of e values
d_test <- dplyr::bind_cols(
  tibble::tibble(e = e_test), 
  mk_df(e_test, ss_e)
)

# take a quick look at the data
d_test

# A tibble: 241 × 10,001
       e vsa_1 vsa_2 vsa_3 vsa_4 vsa_5 vsa_6 vsa_7 vsa_8 vsa_9 vsa_10 vsa_11
   <dbl> <int> <int> <int> <int> <int> <int> <int> <int> <int>  <int>  <int>
 1 -6       -1     1     1     1    -1    -1    -1    -1    -1      1     -1
 2 -5.95    -1     1     1     1    -1    -1    -1    -1    -1      1     -1
 3 -5.9     -1     1     1     1    -1    -1    -1    -1    -1      1     -1
 4 -5.85    -1     1     1     1    -1    -1    -1    -1    -1      1     -1
 5 -5.8     -1     1     1     1    -1    -1    -1    -1    -1      1     -1
 6 -5.75    -1     1     1     1    -1    -1    -1    -1    -1      1     -1
 7 -5.7     -1     1    -1     1    -1    -1    -1    -1    -1      1     -1
 8 -5.65    -1     1     1     1    -1    -1    -1    -1    -1      1     -1
 9 -5.6     -1     1     1    -1    -1    -1    -1    -1    -1      1     -1
10 -5.55    -1     1     1     1    -1    -1    -1    -1    -1      1     -1
# … with 231 more rows, and 9,989 more variables: vsa_12 <int>, vsa_13 <int>,
#   vsa_14 <int>, vsa_15 <int>, vsa_16 <int>, vsa_17 <int>, vsa_18 <int>,
#   vsa_19 <int>, vsa_20 <int>, vsa_21 <int>, vsa_22 <int>, vsa_23 <int>,
#   vsa_24 <int>, vsa_25 <int>, vsa_26 <int>, vsa_27 <int>, vsa_28 <int>,
#   vsa_29 <int>, vsa_30 <int>, vsa_31 <int>, vsa_32 <int>, vsa_33 <int>,
#   vsa_34 <int>, vsa_35 <int>, vsa_36 <int>, vsa_37 <int>, vsa_38 <int>,
#   vsa_39 <int>, vsa_40 <int>, vsa_41 <int>, vsa_42 <int>, vsa_43 <int>, …
…
Create the training data from the relevant subset of observations from
the simulation data. This only contains the outcome \(u\) and the VSA
encoding of the predictor \(e_{orth}\).

# create training data
# contains: u, encode(e_orth)
d_train <- dplyr::bind_cols(
  dplyr::select(d_subset_eo, u), 
  mk_df(dplyr::pull(d_subset_eo, e_orth), ss_eo)
  )

# take a quick look at the data
d_train

# A tibble: 889 × 10,001
       u vsa_1 vsa_2 vsa_3 vsa_4 vsa_5 vsa_6 vsa_7 vsa_8 vsa_9 vsa_10 vsa_11
   <dbl> <int> <int> <int> <int> <int> <int> <int> <int> <int>  <int>  <int>
 1 0.52      1     1    -1     1     1    -1     1     1     1     -1      1
 2 0.541     1     1    -1     1    -1    -1     1     1     1     -1      1
 3 0.511     1     1    -1     1    -1    -1    -1    -1     1      1      1
 4 0.519    -1     1    -1     1     1    -1     1    -1     1      1      1
 5 0.484    -1     1    -1     1     1    -1    -1    -1     1     -1      1
 6 0.5       1     1    -1     1     1    -1     1    -1     1      1      1
 7 0.163     1     1    -1     1     1    -1    -1    -1     1     -1      1
 8 0.53      1     1    -1     1    -1    -1    -1    -1     1     -1      1
 9 0.507    -1     1    -1     1     1    -1    -1     1     1     -1      1
10 0.517     1     1    -1     1    -1    -1    -1     1     1      1      1
# … with 879 more rows, and 9,989 more variables: vsa_12 <int>, vsa_13 <int>,
#   vsa_14 <int>, vsa_15 <int>, vsa_16 <int>, vsa_17 <int>, vsa_18 <int>,
#   vsa_19 <int>, vsa_20 <int>, vsa_21 <int>, vsa_22 <int>, vsa_23 <int>,
#   vsa_24 <int>, vsa_25 <int>, vsa_26 <int>, vsa_27 <int>, vsa_28 <int>,
#   vsa_29 <int>, vsa_30 <int>, vsa_31 <int>, vsa_32 <int>, vsa_33 <int>,
#   vsa_34 <int>, vsa_35 <int>, vsa_36 <int>, vsa_37 <int>, vsa_38 <int>,
#   vsa_39 <int>, vsa_40 <int>, vsa_41 <int>, vsa_42 <int>, vsa_43 <int>, …
…
# create testing data
# contains: e_orth, encode(e_orth)
eo_test <- seq(from = -5, to = 5, by = 0.05) # grid of e_orth values
d_test <- dplyr::bind_cols(
  tibble::tibble(e_orth = eo_test), 
  mk_df(eo_test, ss_eo)
  )

# take a quick look at the data
d_test

# A tibble: 201 × 10,001
   e_orth vsa_1 vsa_2 vsa_3 vsa_4 vsa_5 vsa_6 vsa_7 vsa_8 vsa_9 vsa_10 vsa_11
    <dbl> <int> <int> <int> <int> <int> <int> <int> <int> <int>  <int>  <int>
 1  -5       -1     1    -1     1    -1    -1     1     1     1      1      1
 2  -4.95    -1     1    -1     1    -1    -1     1     1     1      1      1
 3  -4.9     -1     1    -1     1    -1    -1     1     1     1      1      1
 4  -4.85    -1     1    -1     1    -1    -1     1     1     1      1      1
 5  -4.8     -1     1    -1     1    -1    -1     1     1     1      1      1
 6  -4.75    -1     1    -1     1    -1    -1     1     1     1      1      1
 7  -4.7     -1     1    -1     1    -1    -1     1     1     1      1      1
 8  -4.65    -1     1    -1     1    -1    -1     1     1     1      1      1
 9  -4.6     -1     1    -1     1    -1    -1     1     1     1      1      1
10  -4.55    -1     1    -1     1    -1    -1     1     1     1      1      1
# … with 191 more rows, and 9,989 more variables: vsa_12 <int>, vsa_13 <int>,
#   vsa_14 <int>, vsa_15 <int>, vsa_16 <int>, vsa_17 <int>, vsa_18 <int>,
#   vsa_19 <int>, vsa_20 <int>, vsa_21 <int>, vsa_22 <int>, vsa_23 <int>,
#   vsa_24 <int>, vsa_25 <int>, vsa_26 <int>, vsa_27 <int>, vsa_28 <int>,
#   vsa_29 <int>, vsa_30 <int>, vsa_31 <int>, vsa_32 <int>, vsa_33 <int>,
#   vsa_34 <int>, vsa_35 <int>, vsa_36 <int>, vsa_37 <int>, vsa_38 <int>,
#   vsa_39 <int>, vsa_40 <int>, vsa_41 <int>, vsa_42 <int>, vsa_43 <int>, …
…
Create the training data from the subset of observations from the
simulation data. This only contains the outcome \(u\) and the VSA encoding
of the predictor \(encode(e) \otimes encode(e_{orth})\)$.

# create training data
# contains: u, encode(e) * encode(e_orth)
d_train <- dplyr::bind_cols(
  dplyr::select(d_subset, u), 
  mk_df_j2(dplyr::pull(d_subset, e), dplyr::pull(d_subset, e_orth), ss_e, ss_eo)
)

# take a quick look at the data
d_train

# A tibble: 1,000 × 10,001
       u vsa_1 vsa_2 vsa_3 vsa_4 vsa_5 vsa_6 vsa_7 vsa_8 vsa_9 vsa_10 vsa_11
   <dbl> <int> <int> <int> <int> <int> <int> <int> <int> <int>  <int>  <int>
 1 0.52      1    -1     1    -1    -1     1     1     1    -1     -1      1
 2 0.541    -1    -1     1    -1     1     1    -1     1    -1      1      1
 3 0.511     1    -1     1    -1    -1     1    -1     1    -1      1      1
 4 0.519     1    -1     1    -1    -1     1    -1    -1    -1      1      1
 5 0.484    -1    -1     1    -1    -1     1    -1    -1    -1      1      1
 6 0.5       1    -1     1    -1    -1     1     1     1    -1      1      1
 7 0.163    -1    -1     1    -1    -1     1     1     1    -1      1      1
 8 0.53     -1    -1     1    -1     1     1    -1     1    -1      1      1
 9 0.507    -1    -1     1    -1    -1     1     1     1    -1      1      1
10 0.517     1    -1     1    -1     1     1     1    -1    -1      1      1
# … with 990 more rows, and 9,989 more variables: vsa_12 <int>, vsa_13 <int>,
#   vsa_14 <int>, vsa_15 <int>, vsa_16 <int>, vsa_17 <int>, vsa_18 <int>,
#   vsa_19 <int>, vsa_20 <int>, vsa_21 <int>, vsa_22 <int>, vsa_23 <int>,
#   vsa_24 <int>, vsa_25 <int>, vsa_26 <int>, vsa_27 <int>, vsa_28 <int>,
#   vsa_29 <int>, vsa_30 <int>, vsa_31 <int>, vsa_32 <int>, vsa_33 <int>,
#   vsa_34 <int>, vsa_35 <int>, vsa_36 <int>, vsa_37 <int>, vsa_38 <int>,
#   vsa_39 <int>, vsa_40 <int>, vsa_41 <int>, vsa_42 <int>, vsa_43 <int>, …
…
# create testing data
# contains: e, e_orth, encode(e) * encode(e_orth)
e_test <- c(seq(from = -6, to = -1, by = 1), seq(from = -0.2, to = 0.2, by = 0.05), seq(from = 1, to = 6, by = 1)) # grid of e values
eo_test <- seq(from = -5, to = 5, by = 1) # grid of e values
d_grid <- tidyr::expand_grid(e = e_test, e_orth = eo_test)

d_test <- dplyr::bind_cols(
  d_grid,
  mk_df_j2(dplyr::pull(d_grid, e), dplyr::pull(d_grid, e_orth), ss_e, ss_eo)
)

# take a quick look at the data
d_test

# A tibble: 231 × 10,002
       e e_orth vsa_1 vsa_2 vsa_3 vsa_4 vsa_5 vsa_6 vsa_7 vsa_8 vsa_9 vsa_10
   <dbl>  <dbl> <int> <int> <int> <int> <int> <int> <int> <int> <int>  <int>
 1    -6     -5     1     1    -1     1     1     1    -1    -1    -1      1
 2    -6     -4     1     1    -1     1     1     1    -1    -1    -1      1
 3    -6     -3     1     1    -1     1     1     1    -1    -1    -1     -1
 4    -6     -2     1     1    -1     1    -1     1    -1    -1    -1     -1
 5    -6     -1    -1     1    -1     1     1     1     1     1    -1      1
 6    -6      0    -1     1    -1     1    -1     1     1    -1    -1      1
 7    -6      1     1     1    -1     1     1     1    -1    -1    -1     -1
 8    -6      2     1     1    -1     1    -1     1     1     1    -1     -1
 9    -6      3     1     1    -1     1     1     1     1     1    -1      1
10    -6      4    -1     1    -1     1    -1     1     1     1    -1     -1
# … with 221 more rows, and 9,990 more variables: vsa_11 <int>, vsa_12 <int>,
#   vsa_13 <int>, vsa_14 <int>, vsa_15 <int>, vsa_16 <int>, vsa_17 <int>,
#   vsa_18 <int>, vsa_19 <int>, vsa_20 <int>, vsa_21 <int>, vsa_22 <int>,
#   vsa_23 <int>, vsa_24 <int>, vsa_25 <int>, vsa_26 <int>, vsa_27 <int>,
#   vsa_28 <int>, vsa_29 <int>, vsa_30 <int>, vsa_31 <int>, vsa_32 <int>,
#   vsa_33 <int>, vsa_34 <int>, vsa_35 <int>, vsa_36 <int>, vsa_37 <int>,
#   vsa_38 <int>, vsa_39 <int>, vsa_40 <int>, vsa_41 <int>, vsa_42 <int>, …
…
Create the training data from the subset of observations from the
simulation data. This only contains the outcome \(u\) and the VSA encoding
of the predictor \(encode(k_{tgt}) \otimes encode(z) \otimes encode(dz)\).

# create training data
# contains: u, encode(e)
d_train <- dplyr::bind_cols(
  dplyr::select(d_subset, u), 
  mk_df_j3(dplyr::pull(d_subset, k_tgt), dplyr::pull(d_subset, z), dplyr::pull(d_subset, dz), ss_tgt, ss_z, ss_dz)
)

# take a quick look at the data
d_train

# A tibble: 1,000 × 10,001
       u vsa_1 vsa_2 vsa_3 vsa_4 vsa_5 vsa_6 vsa_7 vsa_8 vsa_9 vsa_10 vsa_11
   <dbl> <int> <int> <int> <int> <int> <int> <int> <int> <int>  <int>  <int>
 1 0.52      1     1    -1    -1    -1     1     1    -1     1     -1     -1
 2 0.541    -1    -1     1     1     1    -1    -1     1     1      1      1
 3 0.511    -1     1    -1    -1    -1     1    -1     1     1      1      1
 4 0.519     1     1     1    -1    -1    -1    -1    -1     1      1     -1
 5 0.484    -1     1    -1    -1    -1     1     1    -1     1      1     -1
 6 0.5       1    -1     1     1    -1     1     1    -1     1      1      1
 7 0.163    -1     1     1     1     1     1     1    -1    -1     -1      1
 8 0.53     -1     1    -1    -1     1    -1    -1     1     1      1      1
 9 0.507    -1    -1     1     1    -1     1    -1     1     1      1      1
10 0.517     1    -1     1    -1    -1     1    -1     1     1     -1      1
# … with 990 more rows, and 9,989 more variables: vsa_12 <int>, vsa_13 <int>,
#   vsa_14 <int>, vsa_15 <int>, vsa_16 <int>, vsa_17 <int>, vsa_18 <int>,
#   vsa_19 <int>, vsa_20 <int>, vsa_21 <int>, vsa_22 <int>, vsa_23 <int>,
#   vsa_24 <int>, vsa_25 <int>, vsa_26 <int>, vsa_27 <int>, vsa_28 <int>,
#   vsa_29 <int>, vsa_30 <int>, vsa_31 <int>, vsa_32 <int>, vsa_33 <int>,
#   vsa_34 <int>, vsa_35 <int>, vsa_36 <int>, vsa_37 <int>, vsa_38 <int>,
#   vsa_39 <int>, vsa_40 <int>, vsa_41 <int>, vsa_42 <int>, vsa_43 <int>, …
…
d_test <- dplyr::bind_cols(
  d_grid,
  mk_df_j3(dplyr::pull(d_grid, k_tgt), dplyr::pull(d_grid, z), dplyr::pull(d_grid, dz), ss_tgt, ss_z, ss_dz)
)

# take a quick look at the data
d_test

# A tibble: 2,088 × 10,006
   k_tgt     z    dz    i1     e e_orth vsa_1 vsa_2 vsa_3 vsa_4 vsa_5 vsa_6
   <int> <dbl> <dbl> <dbl> <dbl>  <dbl> <int> <int> <int> <int> <int> <int>
 1     1     1  -5       0   5    -2.5     -1    -1     1    -1    -1     1
 2     1     1  -4.5     0   4.5  -2.25     1     1     1    -1     1     1
 3     1     1  -4       0   4    -2       -1     1    -1    -1     1    -1
 4     1     1  -3.5     0   3.5  -1.75    -1     1    -1     1    -1    -1
 5     1     1  -3       0   3    -1.5     -1    -1     1    -1    -1     1
 6     1     1  -2.5     0   2.5  -1.25     1    -1     1    -1    -1     1
 7     1     1  -2       0   2    -1       -1    -1     1     1    -1     1
 8     1     1  -1.5     0   1.5  -0.75     1     1    -1     1    -1    -1
 9     1     1  -1       0   1    -0.5      1    -1    -1     1    -1     1
10     1     1  -0.5     0   0.5  -0.25    -1     1     1    -1     1     1
# … with 2,078 more rows, and 9,994 more variables: vsa_7 <int>, vsa_8 <int>,
#   vsa_9 <int>, vsa_10 <int>, vsa_11 <int>, vsa_12 <int>, vsa_13 <int>,
#   vsa_14 <int>, vsa_15 <int>, vsa_16 <int>, vsa_17 <int>, vsa_18 <int>,
#   vsa_19 <int>, vsa_20 <int>, vsa_21 <int>, vsa_22 <int>, vsa_23 <int>,
#   vsa_24 <int>, vsa_25 <int>, vsa_26 <int>, vsa_27 <int>, vsa_28 <int>,
#   vsa_29 <int>, vsa_30 <int>, vsa_31 <int>, vsa_32 <int>, vsa_33 <int>,
#   vsa_34 <int>, vsa_35 <int>, vsa_36 <int>, vsa_37 <int>, vsa_38 <int>, …
…
