Simulation Framework
…
# Make the initial state
init_state <- mk_init_state(v_dim, seed = 42)

# Run the simulation, returning the history as a data frame
# Time the execution with tictoc::
tictoc::tic()
history_df <- input_df %>% run_simulation(init_state, update_state)
tictoc::toc()

5.606 sec elapsed

# Take a look at the history
history_df

# A tibble: 1,000 × 11
       t    i_x     i_y    s_x    s_y s_0     s_1    s_2    s_3    s_4    s_5   
   <int>  <dbl>   <dbl>  <dbl>  <dbl> <list>  <list> <list> <list> <list> <list>
 1     1  1.30  -0.298   1.30  -0.298 <dbl [… <dbl … <dbl … <dbl … <dbl … <dbl …
 2     2  2.29  -0.284   3.59  -0.582 <dbl [… <dbl … <dbl … <dbl … <dbl … <dbl …
 3     3 -1.39   0.870   2.20   0.287 <dbl [… <dbl … <dbl … <dbl … <dbl … <dbl …
 4     4 -0.279 -0.544   1.92  -0.257 <dbl [… <dbl … <dbl … <dbl … <dbl … <dbl …
 5     5 -0.133  0.629   1.79   0.372 <dbl [… <dbl … <dbl … <dbl … <dbl … <dbl …
 6     6  0.636 -1.42    2.43  -1.05  <dbl [… <dbl … <dbl … <dbl … <dbl … <dbl …
 7     7 -0.284 -1.23    2.14  -2.28  <dbl [… <dbl … <dbl … <dbl … <dbl … <dbl …
 8     8 -2.66  -1.67   -0.514 -3.95  <dbl [… <dbl … <dbl … <dbl … <dbl … <dbl …
 9     9 -2.44   0.0844 -2.95  -3.87  <dbl [… <dbl … <dbl … <dbl … <dbl … <dbl …
10    10  1.32  -0.206  -1.63  -4.07  <dbl [… <dbl … <dbl … <dbl … <dbl … <dbl …
# … with 990 more rows
…
